{
  "extends": ["tslint-config-airbnb", "tslint:all", "tslint-config-prettier"],
  "rules": {
    "no-null-keyword": false,
    "no-default-export": false,
    "no-default-import": false,
    "no-unsafe-any": false,
    "file-name-casing": false,
    "typedef": [
      true,
      "call-signature",
      "parameter",
      "member-variable-declaration",
      "property-declaration"
    ],
    "variable-name": [true, "ban-keywords", "allow-leading-underscore"],
    "no-require-imports": false,
    "no-var-requires": false,
    "no-implicit-dependencies": [true, "dev"],
    "trailing-comma": [
      true,
      {
        "multiline": {
          "objects": "always",
          "arrays": "always",
          "functions": "never",
          "typeLiterals": "ignore",
          "severity": "warning"
        },
        "esSpecCompliant": true
      }
    ],
    "no-magic-numbers": false,
    "completed-docs": [
      false,
      "classes",
      "enums",
      "enum-members",
      "functions",
      "interfaces",
      "methods",
      "namespaces",
      "properties",
      "types",
      "variables"
    ],
    "no-any": false,
    "increment-decrement": false,
    "import-name": false,
    "no-submodule-imports": false,
    "strict-boolean-expressions": false,
    "no-console": [true, "debug", "log"],
    "strict-string-expressions": false
  },
  "linterOptions": {
    "exclude": ["src/**/*.js", "src/**/*.jsx"]
  }
}
