// Jest Snapshot v1, https://goo.gl/fbAQLP

exports[`BrokerTypesDetailsTabDetails component test check if matches snapshot 1`] = `
<div
  className="sc-bZQynM cdjbVh"
  rows="auto"
>
  <div
    className="sc-iQNlJl hqPXyT"
  >
    <div
      className="sc-htoDjs iEGjJT sc-etwtAo htsXHL ta-broker-type-details-broker-type"
    >
      <div
        className="sc-jXQZqI kzEDmO"
      >
        Broker Type:
      </div>
      <div
        className="sc-iGPElx AeeQV"
      >
        test
      </div>
    </div>
    <div
      className="sc-htoDjs iEGjJT sc-etwtAo htsXHL ta-broker-type-details-system-type"
    >
      <div
        className="sc-jXQZqI kzEDmO"
      >
        System Type:
      </div>
      <div
        className="sc-iGPElx AeeQV"
      >
        test
      </div>
    </div>
    <div
      className="sc-htoDjs iEGjJT sc-etwtAo htsXHL ta-broker-type-details-max-in-flight-messages"
    >
      <div
        className="sc-jXQZqI kzEDmO"
      >
        Max in flight messages:
      </div>
      <div
        className="sc-iGPElx AeeQV"
      />
    </div>
    <div
      className="sc-htoDjs iEGjJT sc-etwtAo htsXHL ta-broker-type-details-disconnect-delay"
    >
      <div
        className="sc-jXQZqI kzEDmO"
      >
        Disconnect delay:
      </div>
      <div
        className="sc-iGPElx AeeQV"
      />
    </div>
  </div>
  <div
    className="sc-iQNlJl hqPXyT"
  >
    <div
      className="sc-htoDjs iEGjJT sc-etwtAo htsXHL ta-broker-type-details-path-to-ca"
    >
      <div
        className="sc-jXQZqI kzEDmO"
      >
        Path to CA:
      </div>
      <div
        className="sc-iGPElx AeeQV"
      >
        test
      </div>
    </div>
    <div
      className="sc-htoDjs iEGjJT sc-etwtAo htsXHL ta-broker-type-details-path-to-private"
    >
      <div
        className="sc-jXQZqI kzEDmO"
      >
        Path to Private:
      </div>
      <div
        className="sc-iGPElx AeeQV"
      >
        test
      </div>
    </div>
    <div
      className="sc-htoDjs iEGjJT sc-etwtAo htsXHL ta-broker-type-details-path-to-cba-ica"
    >
      <div
        className="sc-jXQZqI kzEDmO"
      >
        Path to CBA ICA:
      </div>
      <div
        className="sc-iGPElx AeeQV"
      >
        test
      </div>
    </div>
  </div>
  <div
    className="sc-iQNlJl hqPXyT"
  >
    <div
      className="sc-htoDjs iEGjJT sc-etwtAo htsXHL ta-broker-type-details-created-by"
    >
      <div
        className="sc-jXQZqI kzEDmO"
      >
        Created by:
      </div>
      <div
        className="sc-iGPElx AeeQV"
      >
        test
      </div>
    </div>
    <div
      className="sc-htoDjs iEGjJT sc-etwtAo htsXHL ta-broker-type-details-created-at"
    >
      <div
        className="sc-jXQZqI kzEDmO"
      >
        Created at:
      </div>
      <div
        className="sc-iGPElx AeeQV"
      >
        01.20.2020 08:00
      </div>
    </div>
  </div>
</div>
`;
