// Jest Snapshot v1, https://goo.gl/fbAQLP

exports[`FileInput component test check if matches snapshot 1`] = `
Array [
  <input
    className="sc-keVrkP hvjSgk"
    id="file"
    name="file"
    onChange={[Function]}
    type="file"
  />,
  <label
    className="sc-gVLVqr ANrYT"
    htmlFor="file"
  >
    Upload file
  </label>,
]
`;
